…
```{r}
flights_dt %>%
  filter(!is.na(dep_time)) %>%
  mutate(dep_hour = update(dep_time, yday = 1)) %>%
  mutate(month = factor(month(dep_time))) %>%
  ggplot(aes(dep_hour, color = month)) +
  geom_freqpoly(binwidth = 60 * 60)
```

```{r}
flights_dt %>%
  mutate(dep_time_ = sched_dep_time + dep_delay * 60) %>%
  filter(dep_time_ != dep_time) %>%
  select(dep_time_, dep_time, sched_dep_time, dep_delay)
#> # A tibble: 1,205 x 4
#>   dep_time_           dep_time            sched_dep_time      dep_delay
#>   <dttm>              <dttm>              <dttm>                  <dbl>
#> 1 2013-01-02 08:48:00 2013-01-01 08:48:00 2013-01-01 18:35:00       853
#> 2 2013-01-03 00:42:00 2013-01-02 00:42:00 2013-01-02 23:59:00        43
#> 3 2013-01-03 01:26:00 2013-01-02 01:26:00 2013-01-02 22:50:00       156
#> 4 2013-01-04 00:32:00 2013-01-03 00:32:00 2013-01-03 23:59:00        33
#> 5 2013-01-04 00:50:00 2013-01-03 00:50:00 2013-01-03 21:45:00       185
#> 6 2013-01-04 02:35:00 2013-01-03 02:35:00 2013-01-03 23:59:00       156
#> # … with 1,199 more rows
```

```{r}
flights_dt %>%
  mutate(
    flight_duration = as.numeric(arr_time - dep_time),
    air_time_mins = air_time,
    diff = flight_duration - air_time_mins
  ) %>%
  select(origin, dest, flight_duration, air_time_mins, diff)
#> # A tibble: 328,063 x 5
#>   origin dest  flight_duration air_time_mins  diff
#>   <chr>  <chr>           <dbl>         <dbl> <dbl>
#> 1 EWR    IAH               193           227   -34
#> 2 LGA    IAH               197           227   -30
#> 3 JFK    MIA               221           160    61
#> 4 JFK    BQN               260           183    77
#> 5 LGA    ATL               138           116    22
#> 6 EWR    ORD               106           150   -44
#> # … with 328,057 more rows
```
…
